test/saida3.vcd
$date
	Tue Jul 22 20:33:39 2025
$end
$version
	Icarus Verilog
$end
$timescale
	1ps
$end
$scope module tb $end
$var wire 1 ! reg_write $end
$var wire 1 " pc_write_cond $end
$var wire 1 # pc_write $end
$var wire 1 $ pc_source $end
$var wire 1 % memory_write $end
$var wire 1 & memory_to_reg $end
$var wire 1 ' memory_read $end
$var wire 1 ( lorD $end
$var wire 1 ) is_immediate $end
$var wire 1 * ir_write $end
$var wire 2 + aluop [1:0] $end
$var wire 2 , alu_src_b [1:0] $end
$var wire 2 - alu_src_a [1:0] $end
$var parameter 7 . AUIPCI $end
$var parameter 7 / BRANCHI $end
$var parameter 7 0 CSR $end
$var parameter 7 1 ITYPE $end
$var parameter 7 2 JALI $end
$var parameter 7 3 JALRI $end
$var parameter 7 4 LUII $end
$var parameter 7 5 LW $end
$var parameter 7 6 RTYPE $end
$var parameter 7 7 SW $end
$var reg 1 8 clk $end
$var reg 2 9 expected_alu_src_a [1:0] $end
$var reg 2 : expected_alu_src_b [1:0] $end
$var reg 2 ; expected_aluop [1:0] $end
$var reg 1 < expected_ir_write $end
$var reg 1 = expected_is_immediate $end
$var reg 1 > expected_lorD $end
$var reg 1 ? expected_memory_read $end
$var reg 1 @ expected_memory_to_reg $end
$var reg 1 A expected_memory_write $end
$var reg 1 B expected_pc_source $end
$var reg 1 C expected_pc_write $end
$var reg 1 D expected_pc_write_cond $end
$var reg 1 E expected_reg_write $end
$var reg 7 F instruction_opcode [6:0] $end
$var reg 1 G rst_n $end
$var integer 32 H i [31:0] $end
$var integer 32 I j [31:0] $end
$scope module c_un $end
$var wire 1 8 clk $end
$var wire 7 J instruction_opcode [6:0] $end
$var wire 1 G rst_n $end
$var parameter 4 K ALUWB $end
$var parameter 4 L AUIPC $end
$var parameter 7 M AUIPCI $end
$var parameter 4 N BRANCH $end
$var parameter 7 O BRANCHI $end
$var parameter 4 P DECODE $end
$var parameter 4 Q EXECUTEI $end
$var parameter 4 R EXECUTER $end
$var parameter 4 S FETCH $end
$var parameter 7 T ITYPE $end
$var parameter 4 U JAL $end
$var parameter 7 V JALI $end
$var parameter 4 W JALR $end
$var parameter 7 X JALRI $end
$var parameter 4 Y JALR_PC $end
$var parameter 4 Z LUI $end
$var parameter 7 [ LUII $end
$var parameter 7 \ LW $end
$var parameter 4 ] MEMADR $end
$var parameter 4 ^ MEMREAD $end
$var parameter 4 _ MEMWB $end
$var parameter 4 ` MEMWRITE $end
$var parameter 7 a RTYPE $end
$var parameter 7 b SW $end
$var reg 4 c actual_state [3:0] $end
$var reg 2 d alu_src_a [1:0] $end
$var reg 2 e alu_src_b [1:0] $end
$var reg 2 f aluop [1:0] $end
$var reg 1 * ir_write $end
$var reg 1 ) is_immediate $end
$var reg 1 ( lorD $end
$var reg 1 ' memory_read $end
$var reg 1 & memory_to_reg $end
$var reg 1 % memory_write $end
$var reg 4 g next_state [3:0] $end
$var reg 1 $ pc_source $end
$var reg 1 # pc_write $end
$var reg 1 " pc_write_cond $end
$var reg 1 ! reg_write $end
$upscope $end
$upscope $end
$enddefinitions $end
$comment Show the parameter values. $end
$dumpall
b100011 b
b110011 a
b101 `
b100 _
b11 ^
b10 ]
b11 \
b110111 [
b1101 Z
b1110 Y
b1100111 X
b1011 W
b1101111 V
b1001 U
b10011 T
b0 S
b110 R
b1000 Q
b1 P
b1100011 O
b1010 N
b10111 M
b1100 L
b111 K
b100011 7
b110011 6
b11 5
b110111 4
b1100111 3
b1101111 2
b10011 1
b1110011 0
b1100011 /
b10111 .
$end
#0
$dumpvars
b1 g
b0 f
b1 e
b0 d
b0 c
b110011 J
b100 I
bx H
0G
b110011 F
xE
xD
xC
xB
xA
x@
x?
x>
x=
x<
bx ;
bx :
bx 9
08
b0 -
b1 ,
b0 +
1*
0)
0(
1'
0&
0%
0$
1#
0"
0!
$end
#1000
18
#2000
08
#3000
18
#4000
08
b1 :
b0 9
b0 ;
0@
0>
0D
0A
0=
1?
0E
0B
1<
1C
b0 H
1G
#5000
b110 g
b10 ,
b10 e
b10 -
b10 d
0'
0*
0#
b1 c
18
#6000
08
b10 :
b10 9
0?
0<
0C
b1 H
#7000
b111 g
b0 ,
b0 e
b1 -
b1 d
b10 +
b10 f
b110 c
18
#8000
08
b0 :
b1 9
b10 ;
b10 H
#9000
b0 g
b0 -
b0 d
b0 +
b0 f
1!
b111 c
18
#10000
08
b0 9
b0 ;
1E
b11 H
#11000
b1 g
b1 ,
b1 e
1'
0!
1*
1#
b0 c
18
#12000
08
b100 H
